Assignment 3
…
The top three common words used are: “park”, “hyde”, and “chicago”.

Plot the most common words within each location. What are some of the similarities between the locations? What are some of the differences?

library(ggplot2)

top <- 12 # here we want to plot the top 12 popular words within each location

# Get top 12 words for each location
top_words <- text_count %>%
  group_by(Location) %>%
  slice_max(n, n = top) # Get top 12 words for each location
top_words

# A tibble: 57 × 3
# Groups:   Location [4]
   Location                 word          n
   <chr>                    <chr>     <int>
 1 Grand Boulevard, Chicago boulevard    10
 2 Grand Boulevard, Chicago grand         9
 3 Grand Boulevard, Chicago chicago       7
 4 Grand Boulevard, Chicago community     5
 5 Grand Boulevard, Chicago 1             4
 6 Grand Boulevard, Chicago cast          4
 7 Grand Boulevard, Chicago street        4
 8 Grand Boulevard, Chicago votes         4
 9 Grand Boulevard, Chicago age           3
10 Grand Boulevard, Chicago american      3
# ℹ 47 more rows
…
